HW03 version 2
…
library(gapminder)
library(tidyverse)

gapminder5<-gapminder %>%
  group_by(continent)%>%
  select(continent,lifeExp,year)%>%
  mutate(laglifeExp = lag(lifeExp,1)) %>%
  mutate (ChangeLifeExp = lifeExp-laglifeExp)

print(gapminder5)

## # A tibble: 1,704 x 5
## # Groups:   continent [5]
##    continent lifeExp  year laglifeExp ChangeLifeExp
##    <fct>       <dbl> <int>      <dbl>         <dbl>
##  1 Asia         28.8  1952       NA         NA     
##  2 Asia         30.3  1957       28.8        1.53  
##  3 Asia         32.0  1962       30.3        1.66  
##  4 Asia         34.0  1967       32.0        2.02  
##  5 Asia         36.1  1972       34.0        2.07  
##  6 Asia         38.4  1977       36.1        2.35  
##  7 Asia         39.9  1982       38.4        1.42  
##  8 Asia         40.8  1987       39.9        0.968 
##  9 Asia         41.7  1992       40.8        0.852 
## 10 Asia         41.8  1997       41.7        0.0890
## #  with 1,694 more rows
…
